Tidymodels #4: Hypothesis testing using resampling and tidy data
…
gss %>%
  specify(response = age) %>%
  class()

## [1] "infer"      "tbl_df"     "tbl"        "data.frame"

gss %>%
  specify(age ~ partyid)

## Response: age (numeric)
## Explanatory: partyid (factor)
## # A tibble: 2,963 x 2
##      age partyid
##    <dbl> <fct>  
##  1    37 dem    
##  2    29 dem    
##  3    58 ind    
##  4    40 rep    
##  5    39 dem    
##  6    37 dem    
##  7    53 dem    
##  8    41 rep    
##  9    55 ind    
## 10    47 rep    
## #  with 2,953 more rows

gss %>%
  specify(response = age, explanatory = partyid)

## Response: age (numeric)
## Explanatory: partyid (factor)
## # A tibble: 2,963 x 2
##      age partyid
##    <dbl> <fct>  
##  1    37 dem    
##  2    29 dem    
##  3    58 ind    
##  4    40 rep    
##  5    39 dem    
##  6    37 dem    
##  7    53 dem    
##  8    41 rep    
##  9    55 ind    
## 10    47 rep    
## #  with 2,953 more rows

gss %>%
  specify(response = college, success = "degree")

## Response: college (factor)
## # A tibble: 2,990 x 1
##    college  
##    <fct>    
##  1 no degree
##  2 no degree
##  3 degree   
##  4 degree   
##  5 no degree
##  6 no degree
##  7 no degree
##  8 no degree
##  9 no degree
## 10 no degree
## #  with 2,980 more rows

gss %>%
  specify(college ~ partyid, success = "degree") %>%
  hypothesize(null = "independence")

## Response: college (factor)
## Explanatory: partyid (factor)
## Null Hypothesis: independence
## # A tibble: 2,967 x 2
##    college   partyid
##    <fct>     <fct>  
##  1 no degree dem    
##  2 no degree dem    
##  3 degree    ind    
##  4 degree    rep    
##  5 no degree dem    
##  6 no degree dem    
##  7 no degree dem    
##  8 no degree rep    
##  9 no degree ind    
## 10 no degree rep    
## #  with 2,957 more rows

say the mean hypothesis is 40 hours per week

gss %>%
  specify(response = hours) %>%
  hypothesize(null = "point", mu = 40)

## Response: hours (numeric)
## Null Hypothesis: point
## # A tibble: 1,756 x 1
##    hours
##    <dbl>
##  1    50
##  2    60
##  3    84
##  4    40
##  5    50
##  6    60
##  7    40
##  8    20
##  9    40
## 10    40
## #  with 1,746 more rows

gss %>%
  specify(response = hours) %>%
  hypothesize(null = "point", mu = 40) %>%
  generate(reps = 5000, type = "bootstrap") 

## Response: hours (numeric)
## Null Hypothesis: point
## # A tibble: 8,780,000 x 2
## # Groups:   replicate [5,000]
##    replicate hours
##        <int> <dbl>
##  1         1  39.2
##  2         1  39.2
##  3         1  39.2
##  4         1  44.2
##  5         1  54.2
##  6         1  29.2
##  7         1  57.2
##  8         1  36.2
##  9         1  31.2
## 10         1  59.2
## #  with 8,779,990 more rows

gss %>%
  specify(partyid ~ age) %>%
  hypothesize(null = "independence") %>%
  generate(reps = 5000, type = "permute")

## Response: partyid (factor)
## Explanatory: age (numeric)
## Null Hypothesis: independence
## # A tibble: 14,815,000 x 3
## # Groups:   replicate [5,000]
##    partyid   age replicate
##    <fct>   <dbl>     <int>
##  1 dem        37         1
##  2 ind        29         1
##  3 dem        58         1
##  4 other      40         1
##  5 ind        39         1
##  6 dem        37         1
##  7 rep        53         1
##  8 ind        41         1
##  9 rep        55         1
## 10 rep        47         1
## #  with 14,814,990 more rows

gss %>%
  specify(response = hours) %>%
  hypothesize(null = "point", mu = 40) %>%
  generate(reps = 5000, type = "bootstrap") %>%
  calculate(stat = "mean")

## # A tibble: 5,000 x 2
##    replicate  stat
##        <int> <dbl>
##  1         1  39.8
##  2         2  39.4
##  3         3  39.9
##  4         4  40  
##  5         5  40.1
##  6         6  40.1
##  7         7  39.9
##  8         8  39.7
##  9         9  40.0
## 10        10  40.3
## #  with 4,990 more rows

gss %>%
  specify(age ~ college) %>%
  hypothesize(null = "independence") %>%
  generate(reps = 5000, type = "permute") %>%
  calculate("diff in means", order = c("degree", "no degree"))

## # A tibble: 5,000 x 2
##    replicate   stat
##        <int>  <dbl>
##  1         1 -0.499
##  2         2  0.360
##  3         3  0.133
##  4         4  0.882
##  5         5  0.712
##  6         6  0.238
##  7         7  0.101
##  8         8 -0.547
##  9         9  0.328
## 10        10 -1.09 
## #  with 4,990 more rows
…
